D:\Ethreyas\ERP\Pocs\IBPOne-V1\ibpone-api\src\main\java\com\ibpone\api\config\KeycloakSecurityConfig.java
D:\Ethreyas\ERP\Pocs\IBPOne-V1\ibpone-api\src\main\java\com\ibpone\api\service\ProductServiceImpl.java
D:\Ethreyas\ERP\Pocs\IBPOne-V1\ibpone-api\src\main\java\com\ibpone\api\service\ProductService.java
D:\Ethreyas\ERP\Pocs\IBPOne-V1\ibpone-api\src\main\java\com\ibpone\api\config\CorsConfig.java
D:\Ethreyas\ERP\Pocs\IBPOne-V1\ibpone-api\src\main\java\com\ibpone\api\repository\ProductRepository.java
D:\Ethreyas\ERP\Pocs\IBPOne-V1\ibpone-api\src\main\java\com\ibpone\api\controller\ProductController.java
D:\Ethreyas\ERP\Pocs\IBPOne-V1\ibpone-api\src\main\java\com\ibpone\api\exception\ProductNotFoundException.java
D:\Ethreyas\ERP\Pocs\IBPOne-V1\ibpone-api\src\main\java\com\ibpone\api\model\Product.java
D:\Ethreyas\ERP\Pocs\IBPOne-V1\ibpone-api\src\main\java\com\ibpone\api\controller\dto\ProductDto.java
D:\Ethreyas\ERP\Pocs\IBPOne-V1\ibpone-api\src\main\java\com\ibpone\api\IBPOneApiApplication.java
D:\Ethreyas\ERP\Pocs\IBPOne-V1\ibpone-api\src\main\java\com\ibpone\api\config\webConfig.java
D:\Ethreyas\ERP\Pocs\IBPOne-V1\ibpone-api\src\main\java\com\ibpone\api\config\SwaggerConfig.java
D:\Ethreyas\ERP\Pocs\IBPOne-V1\ibpone-api\src\main\java\com\ibpone\api\controller\dto\CreateProductDto.java
D:\Ethreyas\ERP\Pocs\IBPOne-V1\ibpone-api\src\main\java\com\ibpone\api\controller\dto\UpdateProductDto.java
D:\Ethreyas\ERP\Pocs\IBPOne-V1\ibpone-api\src\main\java\com\ibpone\api\config\MapperConfig.java
